fun main(args: Array<String>) {
    
val names = arrayOf("Jake", "Jill", "Ashley", "Bill")
var i = names.size
 
while(i>0) {
    println(names[--i])


    var x=Array<Int>(5){0}
    x[0]=15
    x[3]=17
    for(i in 0..x.size-1)
    println(x[i])

    for(z in x)
        println(z)



    
}